{U0/U0/U2/U2}
{U0/U0/U0/U2}
{U0/U0/U3/U2}
{U0/U0/U1/U2}
{U0/U0/U4/U2}
{U0/U0/U8/U2}
{U0/U0/U33/U2}
{U0/U0/U32/U3}
{U0/U0/U5/U2}
{U0/U0/U9/U2}
{U0/U0/U6/U2}
{U0/U0/U10/U2}
{U0/U0/U12/U2}
{U0/U0/U33/U3}
{U0/U0/U32/U1}
{U0/U0/U34/U3}
{U0/U0/U36/U3}
{U0/U0/U7/U2}
{U0/U0/U11/U2}
{U0/U0/U13/U2}
{U0/U0/U14/U2}
{U0/U0/U34/U2}
{U0/U0/U36/U2}
{U0/U0/U35/U3}
{U0/U0/U37/U2}
{U0/U0/U38/U3}
{U0/U0/U48/U3}
{U0/U0/U48/U4}
{U0/U0/U15/U2}
{U0/U0/U35/U1}
{U0/U0/U37/U3}
{U0/U0/U38/U2}
{U0/U0/U48/U2}
{U0/U0/U39/U3}
{U0/U0/U49/U3}
{U0/U0/U50/U3}
{U0/U0/U39/U2}
{U0/U0/U49/U2}
{U0/U0/U50/U2}
{U0/U0/U16/U2}
{U0/U0/U51/U3}
{U0/U0/U56/U3}
{U0/U0/U15/U1}
{U0/U0/U14/U1}
{U0/U0/U13/U1}
{U0/U0/U12/U1}
{U0/U0/U11/U1}
{U0/U0/U10/U1}
{U0/U0/U9/U1}
{U0/U0/U8/U1}
{U0/U0/U7/U1}
{U0/U0/U6/U1}
{U0/U0/U5/U1}
{U0/U0/U4/U1}
{U0/U0/U3/U1}
{U0/U0/U2/U1}
{U0/U0/U0/U1}
{U0/U0/U1/U1}
{U0/U0/U51/U2}
{U0/U0/U17/U2}
{U0/U0/U18/U2}
{U0/U0/U56/U1}
{U0/U0/U57/U3}
{U0/U0/U40/U3}
{U0/U0/U39/U1}
{U0/U0/U38/U1}
{U0/U0/U37/U1}
{U0/U0/U36/U1}
{U0/U0/U35/U2}
{U0/U0/U34/U1}
{U0/U0/U33/U1}
{U0/U0/U32/U2}
{U0/U0/U19/U2}
{U0/U0/U57/U2}
{U0/U0/U40/U2}
{U0/U0/U41/U2}
{U0/U0/U60/U3}
{U0/U0/U19/U1}
{U0/U0/U18/U1}
{U0/U0/U17/U1}
{U0/U0/U16/U1}
{U0/U0/U51/U1}
{U0/U0/U50/U1}
{U0/U0/U49/U1}
{U0/U0/U48/U1}
{U0/U0/U41/U3}
{U0/U0/U60/U1}
{U0/U0/U52/U3}
{U0/U0/U41/U1}
{U0/U0/U40/U1}
{U0/U0/U57/U1}
{U0/U0/U56/U2}
{U0/U0/U52/U2}
{U0/U0/U103}
{U0/U0/U52/U1}
{U0/U0/U60/U2}
{U0/U0/U65/U1}
{U0/U0/U65/U3}
{U0/U0/U65/U2}
{U0/U0/U20/U1}
{U0/U0/U65/U4}
{U0/U0/U20/U2}
{U0/U1}
{U0/U0/U83/U2}
{U0/U0/U83/U1}
{U0/U0/U83/U3}
{U0/U0/U177}
{U0/U0/U21/U1}
{U0/U0/U176}
{U0/U0/U175}
