{U0/U0/U2/U2}
{U0/U0/U0/U2}
{U0/U0/U3/U2}
{U0/U0/U1/U2}
{U0/U0/U4/U2}
{U0/U0/U33/U2}
{U0/U0/U32/U3}
{U0/U0/U5/U2}
{U0/U0/U6/U2}
{U0/U0/U33/U3}
{U0/U0/U32/U1}
{U0/U0/U34/U3}
{U0/U0/U7/U2}
{U0/U0/U34/U2}
{U0/U0/U35/U3}
{U0/U0/U48/U3}
{U0/U0/U48/U4}
{U0/U0/U7/U1}
{U0/U0/U6/U1}
{U0/U0/U5/U1}
{U0/U0/U4/U1}
{U0/U0/U3/U1}
{U0/U0/U2/U1}
{U0/U0/U0/U1}
{U0/U0/U1/U1}
{U0/U0/U35/U1}
{U0/U0/U48/U2}
{U0/U0/U49/U3}
{U0/U0/U35/U2}
{U0/U0/U34/U1}
{U0/U0/U33/U1}
{U0/U0/U32/U2}
{U0/U0/U49/U2}
{U0/U0/U56/U3}
{U0/U0/U49/U1}
{U0/U0/U48/U1}
{U0/U0/U8/U1}
{U0/U0/U9/U1}
{U0/U0/U8/U2}
{U0/U0/U56/U1}
{U0/U0/U9/U2}
{U0/U0/U56/U2}
{U0/U0/U36/U1}
{U0/U0/U90}
{U0/U0/U36/U3}
{U0/U0/U36/U2}
{U0/U1}
{U0/U0/U68/U2}
{U0/U0/U68/U3}
{U0/U0/U68/U1}
{U0/U0/U134}
{U0/U0/U10/U1}
{U0/U0/U106}
{U0/U0/U117}
